{
	"_index": "uga_e04",
	"_type": "data",
	"_id": "38394173",
	"_version": 6,
	"_score": 1,
	"_routing": "888",
	"_parent": "888",
	"_source": {
		"data_primitive": {
			"type": "time_series",
			"metadata": {
				"experiment": {
					"id_experiment": "E04"
					},
				"subject": {
					"id_subject": "RMe14"
					}
			},
			"data": [
					{
					"metadata": [
						{
							"term": "x_CTIF_"
							},
						{
							"term": "x_ZBTB7C_"
							},
						{
							"term": "x_SMAD2_"
						}
					]
					},
					{
					"2013-09-04 00:00:00.0": [
						["678"], ["15"], ["3544"]
						]
					},
					{
					"2013-09-04 00:00:00.0": [
						["169"], ["2"], ["1047"]
						]
					}
			]
		}
	}
}
