{
	"_index": "uga_e04",
	"_type": "data",
	"_id": "38394173",
	"_version": 6,
	"_score": 1,
	"_routing": "888",
	"_parent": "888",
	"_source": {
		"data_primitive": {
			"type": "time_series",
			"metadata": {
				"external_file": "E04_metadata_file.txt"
			},
			"data": [
					{
					"metadata": [
						{
							"term": "x_CTIF_"
							},
						{
							"term": "x_ZBTB7C_"
							},
						{
							"term": "x_SMAD2_"
						}
					]
					},
					{
					"time_value": 1378252800,
					"values": [
						["726"], ["16"], ["3976"]
						]
					},
					{
					"time_value": 1378252800,
					"values": [
						["1049"], ["11"], ["5004"]
						]
					}
			]
		}
	}
}
