{
	"_index": "uga_e04",
	"_type": "data",
	"_id": "38394173",
	"_version": 6,
	"_score": 1,
	"_routing": "888",
	"_parent": "888",
	"_source": {
		"data_primitive": {
			"type": "time_series",
			"metadata": {
				"experiment": {
					"id_experiment": 4,
					"id_experiment_metadata": {
						"experiment_name": "E04"
					},
					"id_experiment_protocol": {
						"protocol_app_id": 356
					}
				},
				"subject": {
					"id_subject": 112,
					"id_subject_metadata": {
						"subject_name": "RFv13"
					},
					"id_subject_protocol": {
						"protocol_app_id": 289
					}
				},
				"aliquot": {
					"id_aliquot": 888,
					"id_aliquot_metadata": [
						{
							"id_metadata": "13841",
							"parameter_name": "mpss_appetite",
							"parameter_type": "CLINICAL_MEASUREMENT",
							"parameter_description": ""
						},
						{
							"id_metadata": "13841-made-up",
							"parameter_name": "mpss_appetite_newer_term",
							"parameter_type": "CLINICAL_MEASUREMENT",
							"parameter_description": ""
						}
					],
					"id_subject_protocol": {
						"protocol_app_id": 753
					}
				}
			},
			"data": [
				{
					"timestamp": "2014-09-25 00:10:13.214",
					"data": [
						{
							"value": 1.45,
							"metadata": {
								"variable": "mz",
								"repeat": "1"
							}
						},
						{
							"value": 1.43,
							"metadata": {
								"variable": "retention_time",
								"repeat": "1"
							}
						}
					],
                    "ontology_term": "http://purl.bioontology.org/ontology/MEDDRA/10002034"
				},
				{
					"timestamp": "2014-09-25 00:10:13.215",
					"data": [
						{
							"value": 1.454,
							"metadata": {
								"variable": "mz",
								"repeat": "1"
							}
						},
						{
							"value": 1.33,
							"metadata": {
								"variable": "retention_time",
								"repeat": "1"
							}
						}
					],
                    "ontology_term": "http://purl.bioontology.org/ontology/MEDDRA/10002064"
				}
			]
		}
	}
}
